{
  "model": "StudyProgramSpecialties",
  "title": "Study Program Specialty",
  "components": [{
      "label": "Tabs",
      "type": "tabs",
      "key": "tabs1",
      "path": "tabs1",
      "input": false,

      "components": [{
        "legend": "General Information",
        "key": "fieldSet",
        "type": "fieldset",
        "input": false,
        "label": "General Information",
        "components": [
          {
            "columns": [
              {
              "components": [
                {
                "label": "Name",
                "labelPosition": "top",
                "widget": {
                  "type": "input"
                },
                  "validate": {
                    "required": true,
                    "maxLength": 150
                  },
                "key": "name",
                "type": "textfield",
                "input": true
              }
            ],
              "width": 12,
              "offset": 0,
              "push": 0,
              "pull": 0
            }
          ],
            "customClass": "text-dark",
            "hideLabel": true,
            "type": "columns",
            "input": false
          },
          {
            "columns": [
              {
              "components": [
                {
                "label": "Abbreviation",
                "labelPosition": "top",
                "widget": {
                  "type": "input"
                },
                "validate": {
                  "required": true,
                  "maxLength": 20
                },
                "key": "abbreviation",
                "type": "textfield",
                "input": true
              }
            ],
              "width": 12,
              "offset": 0,
              "push": 0,
              "pull": 0
            }
          ],
            "customClass": "text-dark",
            "hideLabel": true,
            "type": "columns",
            "input": false
          }
        ]
      },
      {
        "legend": "Other languages",
        "key": "fieldSet",
        "type": "fieldset",
        "input": false,
          "label": "Other languages",

          "components": [
            {
              "label": "",
              "hideLabel": true,
              "key": "locales",
              "type": "datagrid",
              "disableAddingRemovingRows": true,
              "input": true,
              "customClass": "fix-panel-for-locales",
              "components": [
                {
                    "collapsible": false,
                    "hideLabel": true,
                    "key": "panel",
                    "type": "panel",
                    "title": "",
                    "hideTitle": true,
                    "input": false,
                    "tableView": false,
                    "components": [
                    {
                      "label": "Language",
                      "tableView": true,
                      "key": "inLanguage",
                      "disabled": "true",
                      "type": "textfield",
                      "input": true
                  },
                  {
                        "label": "Name",
                        "tableView": true,
                        "key": "name",
                        "type": "textfield",
                        "input": true,
                        "validate": {
                          "maxLength": 150
                        }
                  },
                  {
                        "label": "Abbreviation",
                        "tableView": true,
                        "key": "abbreviation",
                        "type": "textfield",
                        "input": true,
                        "validate": {
                          "maxLength": 20
                        }
                  }
                    ]
                }
            ]
            }
          ]
          }
        ]
    },
    {
      "type": "button",
      "label": "Submit",
      "key": "submit",
      "disableOnInvalid": true,
      "input": true
    }
  ]
}
