{
  "selectable": false,
  "columns": [
    {
      "name": "id",
      "title": "Settings.Attributes.year",
      "hidden": false
    },
    {
      "name": "name",
      "title": "Settings.Attributes.name",
      "hidden": false
    },
    {
      "name": "alternateName",
      "title": "Settings.Attributes.alternateName",
      "hidden": false
    },
    {
      "name": "description",
      "title": "Settings.Attributes.description",
      "hidden": false
    },
    {
      "name": "id",
      "virtual": true,
      "formatter": "ButtonFormatter",
      "formatString":"(modal:edit)",
      "className": "text-center",
      "formatOptions": {
        "buttonContent": "<i class=\"far fa-edit text-indigo\"></i>",
        "buttonClass": "btn btn-default"
      }
    }
  ],
  "defaults": {
    "orderBy": "id DESC"
  }
}
