{
  "components": [
    {
      "label": "Columns",
      "columns": [
        {
          "components": [
            {
              "label": "Students.fullName",
              "spellcheck": true,
              "tableView": true,
              "validate": {
                "unique": false,
                "multiple": false
              },
              "key": "studentName",
              "type": "textfield",
              "input": true,
              "hideOnChildrenHidden": false
            }
          ],
          "width": 8,
          "offset": 0,
          "push": 0,
          "pull": 0
        },
        {
          "components": [
            {
              "label": "Students.studentIdentifier",
              "labelPosition": "top",
              "widget": {
                "type": "input"
              },
              "validate": {
                "required": false,
                "min": 0
              },
              "key": "studentIdentifier",
              "type": "number",
              "input": true
            }
          ],
          "width": 4
        }
      ],
      "tableView": false,
      "key": "department",
      "type": "columns",
      "input": false,
      "path": "columns"
    }
  ]
}
