{
  "title": "Graduations.Opened",
  "model": "GraduationEvents",
  "searchExpression": "indexof(name, '${text}') ge 0 or indexof(graduationYear/alternateName, '${text}') ge 0 )",
  "columns": [
    {
      "name": "name",
      "property": "title",
      "title": "Graduations.GraduationTitle"
    },
    {
      "name": "graduationYear/alternateName",
      "property": "year",
      "title": "Graduation.Year",
      "hidden": true
    },
    {
      "name": "graduationPeriod/alternateName",
      "property": "period",
      "title": "Graduations.Period",
      "formatter": "TranslationFormatter",
      "formatString": "Periods.${value}",
      "className": "d-md-table-cell d-sm-none"
    },
    {
      "name": "startDate",
      "property": "startDate",
      "title": "Graduations.GraduationDate",
      "formatter": "DateTimeFormatter",
      "formatString": "shortDate"
    },
    {
      "name": "validFrom",
      "property": "validFrom",
      "title": "Graduations.RequestPeriodStart",
      "formatter": "DateTimeFormatter",
      "formatString": "shortDate",
      "className": "d-md-table-cell d-sm-none"
    },
    {
      "name": "validThrough",
      "property": "validThrough",
      "title": "Graduations.RequestPeriodEnd",
      "formatter": "DateTimeFormatter",
      "formatString": "shortDate",
      "className": "d-lg-table-cell d-md-none"
    },
    {
      "name": "eventStatus/alternateName",
      "property": "eventStatus",
      "title": "Graduations.Status",
      "formatter": "TranslationFormatter",
      "formatString": "EventStatuses.${value}"
    },
    {
      "name": "id",
      "formatter": "ButtonFormatter",
      "formatString": "#/graduations/list/opened/(modal:${id}/edit)",
      "className": "text-center",
      "formatOptions": {
        "buttonContent": "<i class=\"far fa-edit text-indigo\"></i>",
        "buttonClass": "btn btn-default"
      }
    },
    {
      "name": "id",
      "virtual" : true,
      "formatter": "ButtonFormatter",
      "formatString": "#/graduations/${id}/dashboard",
      "className": "text-center",
      "formatOptions": {
        "buttonContent": "<i class=\"far fa-eye text-indigo\"></i>",
        "buttonClass": "btn btn-default"
      }
    }
  ],
  "defaults": {
    "filter": "(organizer eq ${currentDepartment} and eventStatus/alternateName eq 'EventOpened')",
    "orderBy": "graduationYear desc,graduationPeriod desc,name asc"
  },
  "criteria": [
    {
      "name": "title",
      "filter": "(indexof(name, '${value}') ge 0)",
      "type": "text"
    },
    {
      "name": "yearId",
      "filter": "(graduationYear/id eq '${value}')",
      "type": "text"
    },
    {
      "name": "period",
      "filter": "(graduationPeriod/alternateName eq '${value}')",
      "type": "text"
    },
    {
      "name": "currentYear",
      "filter": "(graduationYear eq '${currentYear}')",
      "type": "text"
    },
    {
      "name": "eventStatus",
      "filter": "(eventStatus eq '${value}')",
      "type": "text"
    }
  ]
}
