{
  "model": "DocumentConfigurations",
  "settings": {
    "i18n": {
      "el": {
        "Set the name of this item":"Ορίστε την ονομασία του στοιχείου",
        "Set an alternate name for this item. This name will be used to identify items":"Ορίστε μία εναλλακτική ονομασία για αυτό το στοιχείο. Αυτό το όνομα θα χρησιμοποιηθεί για την ταυτοποίηση του στοιχείου",
        "This field must contain only latin characters or numbers e.g. active, closed etc. A value is required.": "Αυτό το πεδίο πρέπει να περιέχει μόνον λατινικούς χαρακτήρες ή αριθμούς πχ. active, closed κτλ. Το πεδίο είναι υποχρεωτικό.",
        "Write a short description for this item": "Γράψτε μία σύντομη περιγραφή για αυτό το στοιχείο",
        "Set a Language that is going to be used by the element":"Ορίστε τη γλώσσα με την οποία πρόκειται να χρησιμοποιηθεί αυτό το στοιχείο",
        "Related report template": "Σχετικό πρότυπο αίτησης",
        "Maximum active requests per student": "Μέγιστος αριθμός ενεργών αιτήσεων ανά φοιτητή",
        "Maximum allowed completed requests": "Εισάγετε μηδέν (0) εάν δεν υπάρχει όριο",
        "Indicates whether the request is auto completed": "Υποδεικνύει εάν το αίτημα ολοκληρώνεται αυτόματα"
      }
    }
  },
  "components": [
    {
      "type": "fieldset",
      "legend": "Edit item",
      "components": [
        {
          "label": "HTML",
          "tag": "h5",
          "className": "font-weight-normal",
          "content": "{{form.subtitle}}",
          "refreshOnChange": false,
          "tableView": false,
          "key": "subtitle",
          "type": "htmlelement",
          "input": false
        },
        {
          "columns": [
            {
              "components": [
                {
                  "label": "Name",
                  "labelPosition": "top",
                  "widget": {
                    "type": "input"
                  },
                  "validate": {
                    "required": true
                  },
                  "key": "name",
                  "type": "textfield",
                  "input": true,
                  "disabled": false,
                  "description": "Set the name of this item"
                }
              ],
              "width": 6
            },
            {
              "components": [
                {
                  "label": "AlternateName",
                  "labelPosition": "top",
                  "widget": {
                    "type": "input"
                  },
                  "validate": {
                    "required": true,
                    "pattern": "^[a-zA-Z0-9_+-]+$",
                    "customMessage": "This field must contain only latin characters or numbers. A value is required."
                  },
                  "key": "alternateName",
                  "type": "textfield",
                  "input": true,
                  "description": "Set an alternate name for this item. This name will be used to identify items"
                }
              ],
              "width": 6
            },
            {
              "components": [
                {
                  "label": "Description",
                  "labelPosition": "top",
                  "widget": {
                    "type": "input"
                  },
                  "validate": {
                    "required": false
                  },
                  "key": "description",
                  "type": "textarea",
                  "input": true,
                  "description": "Write a short description for this item"
                }
              ],
              "width": 12
            },
            {
              "components": [
                {
                  "label": "In Language",
                  "labelPosition": "top",
                  "data": {
                    "values": [
                      {
                        "label": "Ελληνικά",
                        "value": "el"
                      },
                      {
                        "label": "English",
                        "value": "en"
                      }
                    ]
                  },
                  "widget": "choicesjs",
                  "validate": {
                    "required": true
                  },
                  "key": "inLanguage",
                  "type": "select",
                  "searchEnabled": false,
                  "input": true,
                  "description": "Set a Language that is going to be used by the element"
                }
              ]
            ,
              "width": 6
            },
            {
              "components": [
                {
                  "label": "URL",
                  "labelPosition": "top",
                  "widget": {
                    "type": "input"
                  },
                  "validate": {
                    "required": false
                  },
                  "key": "url",
                  "type": "textfield",
                  "input": true,
                  "disabled": true
                }
              ],
              "width": 6
            },
            {
              "components": [
                {
                  "label": "Related report template",
                  "widget": "choicesjs",
                  "dataSrc": "url",
                  "defaultValue": "",
                  "labelPosition": "top",
                  "data": {
                    "values": [],
                    "url": "/ReportTemplates?$top={{limit}}&$skip={{skip}}&$select=id,name&$filter=indexof(name, '{{encodeURIComponent(search||'')}}') ge 0",
                    "headers": []
                  },
                  "searchField": "search",
                  "searchEnabled": true,
                  "selectThreshold": 0.3,
                  "limit": 10,
                  "template": "{{ item.name }}",
                  "dataType": "object",
                  "idPath": "id",
                  "key": "reportTemplate",
                  "type": "select",
                  "selectValues": "value",
                  "input": true,
                  "lazyLoad": false,
                  "description": "Related report template"
                }
              ],
              "width": 6
            },
            {
              "components": [
                {
                  "label": "Maximum active requests",
                  "labelPosition": "top",
                  "widget": {
                    "type": "input"
                  },
                  "validate": {
                    "required": true
                  },
                  "key": "maximumActive",
                  "selectValues": "javascript:return 1;",
                  "type": "number",
                  "input": true,
                  "description": "Maximum active requests per student"
                }
              ],
              "width": 6
            },
            {
              "components": [
                {
                  "label": "Maximum Allowed completed requests",
                  "labelPosition": "top",
                  "widget": {
                    "type": "input"
                  },
                  "validate": {
                    "required": true
                  },
                  "key": "maximumAllowed",
                  "selectValues": "javascript:return 0;",
                  "type": "number",
                  "input": true,
                  "description": "Maximum allowed completed requests"
                }
              ],
              "width": 6
            },
            {
              "components": [
                {
                  "label": "Auto completed",
                  "labelPosition": "top",
                  "widget": "choicesjs",
                  "data": {
                    "values": [
                      {
                        "label": "No",
                        "value": "false"
                      },
                      {
                        "label": "Yes",
                        "value": "true"
                      }
                    ]
                  },
                  "validate": {
                    "required": true
                  },
                  "key": "autoCompleted",
                  "searchEnabled": false,
                  "type": "select",
                  "description": "Indicates whether the request is auto completed"
                }
              ],
              "width": 6
            }
          ],
          "customClass": "text-dark",
          "hideLabel": true,
          "type": "columns",
          "input": false
        }
      ]
    },
    {
      "type": "button",
      "label": "Submit",
      "key": "submit",
      "disableOnInvalid": true,
      "input": true
    }
  ]
}
