{
  "settings": {
    "i18n": {
    }
  },
  "components": [
    {
      "label": "refersTo",
      "hidden": true,
      "disabled": true,
      "tableView": true,
      "defaultValue": "Internship",
      "clearOnHide": false,
      "key": "refersTo",
      "type": "textfield",
      "input": true
    },
    {
      "legend": "InternshipRuleTitle",
      "type": "fieldset",
      "components": [
        {
          "label": "HTML",
          "content": "<p class=\"text-secondary\">{{instance.t('InternshipRuleDescription')}}</p>",
          "refreshOnChange": false,
          "key": "html",
          "type": "htmlelement",
          "input": false,
          "tableView": false,
          "customConditional": "show = (data.$state != 4)"
        },
        {
          "columns": [
            {
              "components": [
                {
                  "label": "Count totals of",
                  "dataSrc": "url",
                  "widget": "choicesjs",
                  "validate": {
                    "required": true
                  },
                  "data": {
                    "url": "RuleMeasureTypes",
                    "headers": []
                  },
                  "template": "<span class='text-truncate'>{{ item.name }}</span>",
                  "selectValues": "value",
                  "refreshOnChange": false,
                  "lazyLoad": false,
                  "tableView": false,
                  "key": "measureType",
                  "type": "select",
                  "input": true
                }
              ],
              "width": 3,
              "offset": 0,
              "push": 0,
              "pull": 0,
              "size": "md"
            },
            {
              "components": [
                {
                  "label": "RuleOperator",
                  "description": "SetRuleOperator",
                  "labelPosition": "top",
                  "widget": "choicesjs",
                  "dataSrc": "url",
                  "validate": {
                    "required": true
                  },

                  "data": {
                    "url": "RuleOperators",
                    "headers": []
                  },
                  "template": "<span class='d-block pr-5 text-truncate'>{{ item.alternateName }}</span>",
                  "selectValues": "value",
                  "key": "ruleOperator",
                  "defaultValue": "9",
                  "valueProperty": "id",
                  "lazyLoad": false,
                  "type": "select",
                  "input": true

                }
              ],
              "width": 4,
              "offset": 0,
              "push": 0,
              "pull": 0,
              "size": "md"
            },
            {
              "components": [
                {
                  "label": "RuleValue1",
                  "description": "SetRuleValue1",
                  "tableView": true,
                  "validate": {
                    "required": true
                  },
                  "key": "value1",
                  "type": "number",
                  "defaultValue": 1,
                  "input": true,
                  "hideOnChildrenHidden": false
                }
              ],
              "size": "md",
              "width": 4,
              "offset": 0,
              "push": 0,
              "pull": 0
            },
            {
              "components": [
                {
                  "label": "RuleValue2",
                  "description": "SetRuleValue2",
                  "tableView": true,
                  "validate": {
                    "required": true
                  },
                  "key": "value2",
                  "type": "number",
                  "input": true,
                  "hideOnChildrenHidden": false,
                  "clearOnHide": true,
                  "customConditional": "show =(data.ruleOperator === 6)"
                }
              ],
              "size": "md",
              "width": 4,
              "offset": 0,
              "push": 0,
              "pull": 0
            }
          ],
          "customClass": "text-dark",
          "hideLabel": true,
          "type": "columns",
          "input": false
        }
      ]
    },
    {
      "type": "button",
      "action": "event",
      "label": "RemoveRule",
      "event": "remove",
      "key": "remove",
      "theme": "danger",
      "disableOnInvalid": false,
      "input": true,
      "tableView": false
    }
  ]
}
