{
    "model": "Places",
    "columns": [
        {
            "name": "name",
            "title": "Settings.Attributes.name",
            "hidden": false
        },
        {
            "name": "description",
            "title": "Settings.Attributes.description",
            "hidden": false
        },
        {
            "name": "maximumAttendeeCapacity",
            "title": "Settings.Lists.Places.Capacity",
            "hidden": false
        },
        {
            "name": "containedInPlace/name",
            "property": "parentPlace",
            "title": "Settings.Lists.Places.ParentPlace",
            "hidden": false
        },
        {
            "name": "id",
            "formatter": "ButtonFormatter",
            "formatString":"(modal:edit)",
            "className": "text-center",
            "formatOptions": {
                "buttonContent": "<i class=\"far fa-edit text-indigo\"></i>",
                "buttonClass": "btn btn-default"
            }
        }
    ]
}
